-- Merging decision tree log ---
manifest
ADDED from /Users/chuchu/AndroidStudioProjects/MyApplication2/mobile/src/main/AndroidManifest.xml:2:1-21:12
	xmlns:android
		ADDED from /Users/chuchu/AndroidStudioProjects/MyApplication2/mobile/src/main/AndroidManifest.xml:2:11-69
	package
		ADDED from /Users/chuchu/AndroidStudioProjects/MyApplication2/mobile/src/main/AndroidManifest.xml:3:5-47
		INJECTED from /Users/chuchu/AndroidStudioProjects/MyApplication2/mobile/src/main/AndroidManifest.xml
		INJECTED from /Users/chuchu/AndroidStudioProjects/MyApplication2/mobile/src/main/AndroidManifest.xml
	android:versionName
		INJECTED from /Users/chuchu/AndroidStudioProjects/MyApplication2/mobile/src/main/AndroidManifest.xml
		INJECTED from /Users/chuchu/AndroidStudioProjects/MyApplication2/mobile/src/main/AndroidManifest.xml
	android:versionCode
		INJECTED from /Users/chuchu/AndroidStudioProjects/MyApplication2/mobile/src/main/AndroidManifest.xml
		INJECTED from /Users/chuchu/AndroidStudioProjects/MyApplication2/mobile/src/main/AndroidManifest.xml
application
ADDED from /Users/chuchu/AndroidStudioProjects/MyApplication2/mobile/src/main/AndroidManifest.xml:5:5-19:19
MERGED from [com.android.support:appcompat-v7:23.0.0] /Users/chuchu/AndroidStudioProjects/MyApplication2/mobile/build/intermediates/exploded-aar/com.android.support/appcompat-v7/23.0.0/AndroidManifest.xml:22:5-20
MERGED from [com.android.support:support-v4:23.0.0] /Users/chuchu/AndroidStudioProjects/MyApplication2/mobile/build/intermediates/exploded-aar/com.android.support/support-v4/23.0.0/AndroidManifest.xml:22:5-20
MERGED from [com.google.android.gms:play-services:7.8.0] /Users/chuchu/AndroidStudioProjects/MyApplication2/mobile/build/intermediates/exploded-aar/com.google.android.gms/play-services/7.8.0/AndroidManifest.xml:19:5-20
MERGED from [com.google.android.gms:play-services-ads:7.8.0] /Users/chuchu/AndroidStudioProjects/MyApplication2/mobile/build/intermediates/exploded-aar/com.google.android.gms/play-services-ads/7.8.0/AndroidManifest.xml:24:5-32:19
MERGED from [com.google.android.gms:play-services-base:7.8.0] /Users/chuchu/AndroidStudioProjects/MyApplication2/mobile/build/intermediates/exploded-aar/com.google.android.gms/play-services-base/7.8.0/AndroidManifest.xml:20:5-24:19
MERGED from [com.android.support:support-v4:23.0.0] /Users/chuchu/AndroidStudioProjects/MyApplication2/mobile/build/intermediates/exploded-aar/com.android.support/support-v4/23.0.0/AndroidManifest.xml:22:5-20
MERGED from [com.google.android.gms:play-services-analytics:7.8.0] /Users/chuchu/AndroidStudioProjects/MyApplication2/mobile/build/intermediates/exploded-aar/com.google.android.gms/play-services-analytics/7.8.0/AndroidManifest.xml:24:5-20
MERGED from [com.google.android.gms:play-services-base:7.8.0] /Users/chuchu/AndroidStudioProjects/MyApplication2/mobile/build/intermediates/exploded-aar/com.google.android.gms/play-services-base/7.8.0/AndroidManifest.xml:20:5-24:19
MERGED from [com.android.support:support-v4:23.0.0] /Users/chuchu/AndroidStudioProjects/MyApplication2/mobile/build/intermediates/exploded-aar/com.android.support/support-v4/23.0.0/AndroidManifest.xml:22:5-20
MERGED from [com.google.android.gms:play-services-appindexing:7.8.0] /Users/chuchu/AndroidStudioProjects/MyApplication2/mobile/build/intermediates/exploded-aar/com.google.android.gms/play-services-appindexing/7.8.0/AndroidManifest.xml:19:5-20
MERGED from [com.google.android.gms:play-services-base:7.8.0] /Users/chuchu/AndroidStudioProjects/MyApplication2/mobile/build/intermediates/exploded-aar/com.google.android.gms/play-services-base/7.8.0/AndroidManifest.xml:20:5-24:19
MERGED from [com.android.support:support-v4:23.0.0] /Users/chuchu/AndroidStudioProjects/MyApplication2/mobile/build/intermediates/exploded-aar/com.android.support/support-v4/23.0.0/AndroidManifest.xml:22:5-20
MERGED from [com.google.android.gms:play-services-analytics:7.8.0] /Users/chuchu/AndroidStudioProjects/MyApplication2/mobile/build/intermediates/exploded-aar/com.google.android.gms/play-services-analytics/7.8.0/AndroidManifest.xml:24:5-20
MERGED from [com.google.android.gms:play-services-base:7.8.0] /Users/chuchu/AndroidStudioProjects/MyApplication2/mobile/build/intermediates/exploded-aar/com.google.android.gms/play-services-base/7.8.0/AndroidManifest.xml:20:5-24:19
MERGED from [com.android.support:support-v4:23.0.0] /Users/chuchu/AndroidStudioProjects/MyApplication2/mobile/build/intermediates/exploded-aar/com.android.support/support-v4/23.0.0/AndroidManifest.xml:22:5-20
MERGED from [com.google.android.gms:play-services-appindexing:7.8.0] /Users/chuchu/AndroidStudioProjects/MyApplication2/mobile/build/intermediates/exploded-aar/com.google.android.gms/play-services-appindexing/7.8.0/AndroidManifest.xml:19:5-20
MERGED from [com.google.android.gms:play-services-base:7.8.0] /Users/chuchu/AndroidStudioProjects/MyApplication2/mobile/build/intermediates/exploded-aar/com.google.android.gms/play-services-base/7.8.0/AndroidManifest.xml:20:5-24:19
MERGED from [com.android.support:support-v4:23.0.0] /Users/chuchu/AndroidStudioProjects/MyApplication2/mobile/build/intermediates/exploded-aar/com.android.support/support-v4/23.0.0/AndroidManifest.xml:22:5-20
MERGED from [com.google.android.gms:play-services-appinvite:7.8.0] /Users/chuchu/AndroidStudioProjects/MyApplication2/mobile/build/intermediates/exploded-aar/com.google.android.gms/play-services-appinvite/7.8.0/AndroidManifest.xml:20:5-20
MERGED from [com.google.android.gms:play-services-base:7.8.0] /Users/chuchu/AndroidStudioProjects/MyApplication2/mobile/build/intermediates/exploded-aar/com.google.android.gms/play-services-base/7.8.0/AndroidManifest.xml:20:5-24:19
MERGED from [com.android.support:support-v4:23.0.0] /Users/chuchu/AndroidStudioProjects/MyApplication2/mobile/build/intermediates/exploded-aar/com.android.support/support-v4/23.0.0/AndroidManifest.xml:22:5-20
MERGED from [com.google.android.gms:play-services-appstate:7.8.0] /Users/chuchu/AndroidStudioProjects/MyApplication2/mobile/build/intermediates/exploded-aar/com.google.android.gms/play-services-appstate/7.8.0/AndroidManifest.xml:19:5-20
MERGED from [com.google.android.gms:play-services-base:7.8.0] /Users/chuchu/AndroidStudioProjects/MyApplication2/mobile/build/intermediates/exploded-aar/com.google.android.gms/play-services-base/7.8.0/AndroidManifest.xml:20:5-24:19
MERGED from [com.android.support:support-v4:23.0.0] /Users/chuchu/AndroidStudioProjects/MyApplication2/mobile/build/intermediates/exploded-aar/com.android.support/support-v4/23.0.0/AndroidManifest.xml:22:5-20
MERGED from [com.google.android.gms:play-services-base:7.8.0] /Users/chuchu/AndroidStudioProjects/MyApplication2/mobile/build/intermediates/exploded-aar/com.google.android.gms/play-services-base/7.8.0/AndroidManifest.xml:20:5-24:19
MERGED from [com.android.support:support-v4:23.0.0] /Users/chuchu/AndroidStudioProjects/MyApplication2/mobile/build/intermediates/exploded-aar/com.android.support/support-v4/23.0.0/AndroidManifest.xml:22:5-20
MERGED from [com.google.android.gms:play-services-cast:7.8.0] /Users/chuchu/AndroidStudioProjects/MyApplication2/mobile/build/intermediates/exploded-aar/com.google.android.gms/play-services-cast/7.8.0/AndroidManifest.xml:19:5-20
MERGED from [com.google.android.gms:play-services-base:7.8.0] /Users/chuchu/AndroidStudioProjects/MyApplication2/mobile/build/intermediates/exploded-aar/com.google.android.gms/play-services-base/7.8.0/AndroidManifest.xml:20:5-24:19
MERGED from [com.android.support:support-v4:23.0.0] /Users/chuchu/AndroidStudioProjects/MyApplication2/mobile/build/intermediates/exploded-aar/com.android.support/support-v4/23.0.0/AndroidManifest.xml:22:5-20
MERGED from [com.android.support:mediarouter-v7:22.2.0] /Users/chuchu/AndroidStudioProjects/MyApplication2/mobile/build/intermediates/exploded-aar/com.android.support/mediarouter-v7/22.2.0/AndroidManifest.xml:22:5-20
MERGED from [com.android.support:appcompat-v7:23.0.0] /Users/chuchu/AndroidStudioProjects/MyApplication2/mobile/build/intermediates/exploded-aar/com.android.support/appcompat-v7/23.0.0/AndroidManifest.xml:22:5-20
MERGED from [com.android.support:support-v4:23.0.0] /Users/chuchu/AndroidStudioProjects/MyApplication2/mobile/build/intermediates/exploded-aar/com.android.support/support-v4/23.0.0/AndroidManifest.xml:22:5-20
MERGED from [com.google.android.gms:play-services-drive:7.8.0] /Users/chuchu/AndroidStudioProjects/MyApplication2/mobile/build/intermediates/exploded-aar/com.google.android.gms/play-services-drive/7.8.0/AndroidManifest.xml:19:5-20
MERGED from [com.google.android.gms:play-services-base:7.8.0] /Users/chuchu/AndroidStudioProjects/MyApplication2/mobile/build/intermediates/exploded-aar/com.google.android.gms/play-services-base/7.8.0/AndroidManifest.xml:20:5-24:19
MERGED from [com.android.support:support-v4:23.0.0] /Users/chuchu/AndroidStudioProjects/MyApplication2/mobile/build/intermediates/exploded-aar/com.android.support/support-v4/23.0.0/AndroidManifest.xml:22:5-20
MERGED from [com.google.android.gms:play-services-fitness:7.8.0] /Users/chuchu/AndroidStudioProjects/MyApplication2/mobile/build/intermediates/exploded-aar/com.google.android.gms/play-services-fitness/7.8.0/AndroidManifest.xml:19:5-20
MERGED from [com.google.android.gms:play-services-base:7.8.0] /Users/chuchu/AndroidStudioProjects/MyApplication2/mobile/build/intermediates/exploded-aar/com.google.android.gms/play-services-base/7.8.0/AndroidManifest.xml:20:5-24:19
MERGED from [com.android.support:support-v4:23.0.0] /Users/chuchu/AndroidStudioProjects/MyApplication2/mobile/build/intermediates/exploded-aar/com.android.support/support-v4/23.0.0/AndroidManifest.xml:22:5-20
MERGED from [com.google.android.gms:play-services-location:7.8.0] /Users/chuchu/AndroidStudioProjects/MyApplication2/mobile/build/intermediates/exploded-aar/com.google.android.gms/play-services-location/7.8.0/AndroidManifest.xml:19:5-20
MERGED from [com.google.android.gms:play-services-base:7.8.0] /Users/chuchu/AndroidStudioProjects/MyApplication2/mobile/build/intermediates/exploded-aar/com.google.android.gms/play-services-base/7.8.0/AndroidManifest.xml:20:5-24:19
MERGED from [com.android.support:support-v4:23.0.0] /Users/chuchu/AndroidStudioProjects/MyApplication2/mobile/build/intermediates/exploded-aar/com.android.support/support-v4/23.0.0/AndroidManifest.xml:22:5-20
MERGED from [com.google.android.gms:play-services-maps:7.8.0] /Users/chuchu/AndroidStudioProjects/MyApplication2/mobile/build/intermediates/exploded-aar/com.google.android.gms/play-services-maps/7.8.0/AndroidManifest.xml:28:5-20
MERGED from [com.google.android.gms:play-services-base:7.8.0] /Users/chuchu/AndroidStudioProjects/MyApplication2/mobile/build/intermediates/exploded-aar/com.google.android.gms/play-services-base/7.8.0/AndroidManifest.xml:20:5-24:19
MERGED from [com.android.support:support-v4:23.0.0] /Users/chuchu/AndroidStudioProjects/MyApplication2/mobile/build/intermediates/exploded-aar/com.android.support/support-v4/23.0.0/AndroidManifest.xml:22:5-20
MERGED from [com.google.android.gms:play-services-games:7.8.0] /Users/chuchu/AndroidStudioProjects/MyApplication2/mobile/build/intermediates/exploded-aar/com.google.android.gms/play-services-games/7.8.0/AndroidManifest.xml:19:5-20
MERGED from [com.google.android.gms:play-services-base:7.8.0] /Users/chuchu/AndroidStudioProjects/MyApplication2/mobile/build/intermediates/exploded-aar/com.google.android.gms/play-services-base/7.8.0/AndroidManifest.xml:20:5-24:19
MERGED from [com.android.support:support-v4:23.0.0] /Users/chuchu/AndroidStudioProjects/MyApplication2/mobile/build/intermediates/exploded-aar/com.android.support/support-v4/23.0.0/AndroidManifest.xml:22:5-20
MERGED from [com.google.android.gms:play-services-drive:7.8.0] /Users/chuchu/AndroidStudioProjects/MyApplication2/mobile/build/intermediates/exploded-aar/com.google.android.gms/play-services-drive/7.8.0/AndroidManifest.xml:19:5-20
MERGED from [com.google.android.gms:play-services-base:7.8.0] /Users/chuchu/AndroidStudioProjects/MyApplication2/mobile/build/intermediates/exploded-aar/com.google.android.gms/play-services-base/7.8.0/AndroidManifest.xml:20:5-24:19
MERGED from [com.android.support:support-v4:23.0.0] /Users/chuchu/AndroidStudioProjects/MyApplication2/mobile/build/intermediates/exploded-aar/com.android.support/support-v4/23.0.0/AndroidManifest.xml:22:5-20
MERGED from [com.google.android.gms:play-services-gcm:7.8.0] /Users/chuchu/AndroidStudioProjects/MyApplication2/mobile/build/intermediates/exploded-aar/com.google.android.gms/play-services-gcm/7.8.0/AndroidManifest.xml:24:5-20
MERGED from [com.google.android.gms:play-services-base:7.8.0] /Users/chuchu/AndroidStudioProjects/MyApplication2/mobile/build/intermediates/exploded-aar/com.google.android.gms/play-services-base/7.8.0/AndroidManifest.xml:20:5-24:19
MERGED from [com.android.support:support-v4:23.0.0] /Users/chuchu/AndroidStudioProjects/MyApplication2/mobile/build/intermediates/exploded-aar/com.android.support/support-v4/23.0.0/AndroidManifest.xml:22:5-20
MERGED from [com.google.android.gms:play-services-identity:7.8.0] /Users/chuchu/AndroidStudioProjects/MyApplication2/mobile/build/intermediates/exploded-aar/com.google.android.gms/play-services-identity/7.8.0/AndroidManifest.xml:19:5-20
MERGED from [com.google.android.gms:play-services-base:7.8.0] /Users/chuchu/AndroidStudioProjects/MyApplication2/mobile/build/intermediates/exploded-aar/com.google.android.gms/play-services-base/7.8.0/AndroidManifest.xml:20:5-24:19
MERGED from [com.android.support:support-v4:23.0.0] /Users/chuchu/AndroidStudioProjects/MyApplication2/mobile/build/intermediates/exploded-aar/com.android.support/support-v4/23.0.0/AndroidManifest.xml:22:5-20
MERGED from [com.google.android.gms:play-services-location:7.8.0] /Users/chuchu/AndroidStudioProjects/MyApplication2/mobile/build/intermediates/exploded-aar/com.google.android.gms/play-services-location/7.8.0/AndroidManifest.xml:19:5-20
MERGED from [com.google.android.gms:play-services-base:7.8.0] /Users/chuchu/AndroidStudioProjects/MyApplication2/mobile/build/intermediates/exploded-aar/com.google.android.gms/play-services-base/7.8.0/AndroidManifest.xml:20:5-24:19
MERGED from [com.android.support:support-v4:23.0.0] /Users/chuchu/AndroidStudioProjects/MyApplication2/mobile/build/intermediates/exploded-aar/com.android.support/support-v4/23.0.0/AndroidManifest.xml:22:5-20
MERGED from [com.google.android.gms:play-services-maps:7.8.0] /Users/chuchu/AndroidStudioProjects/MyApplication2/mobile/build/intermediates/exploded-aar/com.google.android.gms/play-services-maps/7.8.0/AndroidManifest.xml:28:5-20
MERGED from [com.google.android.gms:play-services-base:7.8.0] /Users/chuchu/AndroidStudioProjects/MyApplication2/mobile/build/intermediates/exploded-aar/com.google.android.gms/play-services-base/7.8.0/AndroidManifest.xml:20:5-24:19
MERGED from [com.android.support:support-v4:23.0.0] /Users/chuchu/AndroidStudioProjects/MyApplication2/mobile/build/intermediates/exploded-aar/com.android.support/support-v4/23.0.0/AndroidManifest.xml:22:5-20
MERGED from [com.google.android.gms:play-services-maps:7.8.0] /Users/chuchu/AndroidStudioProjects/MyApplication2/mobile/build/intermediates/exploded-aar/com.google.android.gms/play-services-maps/7.8.0/AndroidManifest.xml:28:5-20
MERGED from [com.google.android.gms:play-services-base:7.8.0] /Users/chuchu/AndroidStudioProjects/MyApplication2/mobile/build/intermediates/exploded-aar/com.google.android.gms/play-services-base/7.8.0/AndroidManifest.xml:20:5-24:19
MERGED from [com.android.support:support-v4:23.0.0] /Users/chuchu/AndroidStudioProjects/MyApplication2/mobile/build/intermediates/exploded-aar/com.android.support/support-v4/23.0.0/AndroidManifest.xml:22:5-20
MERGED from [com.google.android.gms:play-services-nearby:7.8.0] /Users/chuchu/AndroidStudioProjects/MyApplication2/mobile/build/intermediates/exploded-aar/com.google.android.gms/play-services-nearby/7.8.0/AndroidManifest.xml:20:5-20
MERGED from [com.google.android.gms:play-services-base:7.8.0] /Users/chuchu/AndroidStudioProjects/MyApplication2/mobile/build/intermediates/exploded-aar/com.google.android.gms/play-services-base/7.8.0/AndroidManifest.xml:20:5-24:19
MERGED from [com.android.support:support-v4:23.0.0] /Users/chuchu/AndroidStudioProjects/MyApplication2/mobile/build/intermediates/exploded-aar/com.android.support/support-v4/23.0.0/AndroidManifest.xml:22:5-20
MERGED from [com.google.android.gms:play-services-panorama:7.8.0] /Users/chuchu/AndroidStudioProjects/MyApplication2/mobile/build/intermediates/exploded-aar/com.google.android.gms/play-services-panorama/7.8.0/AndroidManifest.xml:19:5-20
MERGED from [com.google.android.gms:play-services-base:7.8.0] /Users/chuchu/AndroidStudioProjects/MyApplication2/mobile/build/intermediates/exploded-aar/com.google.android.gms/play-services-base/7.8.0/AndroidManifest.xml:20:5-24:19
MERGED from [com.android.support:support-v4:23.0.0] /Users/chuchu/AndroidStudioProjects/MyApplication2/mobile/build/intermediates/exploded-aar/com.android.support/support-v4/23.0.0/AndroidManifest.xml:22:5-20
MERGED from [com.google.android.gms:play-services-plus:7.8.0] /Users/chuchu/AndroidStudioProjects/MyApplication2/mobile/build/intermediates/exploded-aar/com.google.android.gms/play-services-plus/7.8.0/AndroidManifest.xml:19:5-20
MERGED from [com.google.android.gms:play-services-base:7.8.0] /Users/chuchu/AndroidStudioProjects/MyApplication2/mobile/build/intermediates/exploded-aar/com.google.android.gms/play-services-base/7.8.0/AndroidManifest.xml:20:5-24:19
MERGED from [com.android.support:support-v4:23.0.0] /Users/chuchu/AndroidStudioProjects/MyApplication2/mobile/build/intermediates/exploded-aar/com.android.support/support-v4/23.0.0/AndroidManifest.xml:22:5-20
MERGED from [com.google.android.gms:play-services-safetynet:7.8.0] /Users/chuchu/AndroidStudioProjects/MyApplication2/mobile/build/intermediates/exploded-aar/com.google.android.gms/play-services-safetynet/7.8.0/AndroidManifest.xml:19:5-20
MERGED from [com.google.android.gms:play-services-base:7.8.0] /Users/chuchu/AndroidStudioProjects/MyApplication2/mobile/build/intermediates/exploded-aar/com.google.android.gms/play-services-base/7.8.0/AndroidManifest.xml:20:5-24:19
MERGED from [com.android.support:support-v4:23.0.0] /Users/chuchu/AndroidStudioProjects/MyApplication2/mobile/build/intermediates/exploded-aar/com.android.support/support-v4/23.0.0/AndroidManifest.xml:22:5-20
MERGED from [com.google.android.gms:play-services-vision:7.8.0] /Users/chuchu/AndroidStudioProjects/MyApplication2/mobile/build/intermediates/exploded-aar/com.google.android.gms/play-services-vision/7.8.0/AndroidManifest.xml:5:5-20
MERGED from [com.google.android.gms:play-services-base:7.8.0] /Users/chuchu/AndroidStudioProjects/MyApplication2/mobile/build/intermediates/exploded-aar/com.google.android.gms/play-services-base/7.8.0/AndroidManifest.xml:20:5-24:19
MERGED from [com.android.support:support-v4:23.0.0] /Users/chuchu/AndroidStudioProjects/MyApplication2/mobile/build/intermediates/exploded-aar/com.android.support/support-v4/23.0.0/AndroidManifest.xml:22:5-20
MERGED from [com.google.android.gms:play-services-base:7.8.0] /Users/chuchu/AndroidStudioProjects/MyApplication2/mobile/build/intermediates/exploded-aar/com.google.android.gms/play-services-base/7.8.0/AndroidManifest.xml:20:5-24:19
MERGED from [com.android.support:support-v4:23.0.0] /Users/chuchu/AndroidStudioProjects/MyApplication2/mobile/build/intermediates/exploded-aar/com.android.support/support-v4/23.0.0/AndroidManifest.xml:22:5-20
MERGED from [com.google.android.gms:play-services-identity:7.8.0] /Users/chuchu/AndroidStudioProjects/MyApplication2/mobile/build/intermediates/exploded-aar/com.google.android.gms/play-services-identity/7.8.0/AndroidManifest.xml:19:5-20
MERGED from [com.google.android.gms:play-services-base:7.8.0] /Users/chuchu/AndroidStudioProjects/MyApplication2/mobile/build/intermediates/exploded-aar/com.google.android.gms/play-services-base/7.8.0/AndroidManifest.xml:20:5-24:19
MERGED from [com.android.support:support-v4:23.0.0] /Users/chuchu/AndroidStudioProjects/MyApplication2/mobile/build/intermediates/exploded-aar/com.android.support/support-v4/23.0.0/AndroidManifest.xml:22:5-20
MERGED from [com.google.android.gms:play-services-maps:7.8.0] /Users/chuchu/AndroidStudioProjects/MyApplication2/mobile/build/intermediates/exploded-aar/com.google.android.gms/play-services-maps/7.8.0/AndroidManifest.xml:28:5-20
MERGED from [com.google.android.gms:play-services-base:7.8.0] /Users/chuchu/AndroidStudioProjects/MyApplication2/mobile/build/intermediates/exploded-aar/com.google.android.gms/play-services-base/7.8.0/AndroidManifest.xml:20:5-24:19
MERGED from [com.android.support:support-v4:23.0.0] /Users/chuchu/AndroidStudioProjects/MyApplication2/mobile/build/intermediates/exploded-aar/com.android.support/support-v4/23.0.0/AndroidManifest.xml:22:5-20
MERGED from [com.google.android.gms:play-services-wearable:7.8.0] /Users/chuchu/AndroidStudioProjects/MyApplication2/mobile/build/intermediates/exploded-aar/com.google.android.gms/play-services-wearable/7.8.0/AndroidManifest.xml:19:5-20
MERGED from [com.google.android.gms:play-services-base:7.8.0] /Users/chuchu/AndroidStudioProjects/MyApplication2/mobile/build/intermediates/exploded-aar/com.google.android.gms/play-services-base/7.8.0/AndroidManifest.xml:20:5-24:19
MERGED from [com.android.support:support-v4:23.0.0] /Users/chuchu/AndroidStudioProjects/MyApplication2/mobile/build/intermediates/exploded-aar/com.android.support/support-v4/23.0.0/AndroidManifest.xml:22:5-20
	android:label
		ADDED from /Users/chuchu/AndroidStudioProjects/MyApplication2/mobile/src/main/AndroidManifest.xml:8:9-41
	android:allowBackup
		ADDED from /Users/chuchu/AndroidStudioProjects/MyApplication2/mobile/src/main/AndroidManifest.xml:6:9-35
	android:icon
		ADDED from /Users/chuchu/AndroidStudioProjects/MyApplication2/mobile/src/main/AndroidManifest.xml:7:9-43
	android:theme
		ADDED from /Users/chuchu/AndroidStudioProjects/MyApplication2/mobile/src/main/AndroidManifest.xml:9:9-40
activity#com.example.chuchu.myapplication.MainActivity
ADDED from /Users/chuchu/AndroidStudioProjects/MyApplication2/mobile/src/main/AndroidManifest.xml:10:9-18:20
	android:label
		ADDED from /Users/chuchu/AndroidStudioProjects/MyApplication2/mobile/src/main/AndroidManifest.xml:12:13-45
	android:name
		ADDED from /Users/chuchu/AndroidStudioProjects/MyApplication2/mobile/src/main/AndroidManifest.xml:11:13-41
intent-filter#android.intent.action.MAIN+android.intent.category.LAUNCHER
ADDED from /Users/chuchu/AndroidStudioProjects/MyApplication2/mobile/src/main/AndroidManifest.xml:13:13-17:29
action#android.intent.action.MAIN
ADDED from /Users/chuchu/AndroidStudioProjects/MyApplication2/mobile/src/main/AndroidManifest.xml:14:17-69
	android:name
		ADDED from /Users/chuchu/AndroidStudioProjects/MyApplication2/mobile/src/main/AndroidManifest.xml:14:25-66
category#android.intent.category.LAUNCHER
ADDED from /Users/chuchu/AndroidStudioProjects/MyApplication2/mobile/src/main/AndroidManifest.xml:16:17-77
	android:name
		ADDED from /Users/chuchu/AndroidStudioProjects/MyApplication2/mobile/src/main/AndroidManifest.xml:16:27-74
uses-sdk
INJECTED from /Users/chuchu/AndroidStudioProjects/MyApplication2/mobile/src/main/AndroidManifest.xml reason: use-sdk injection requested
MERGED from [com.android.support:appcompat-v7:23.0.0] /Users/chuchu/AndroidStudioProjects/MyApplication2/mobile/build/intermediates/exploded-aar/com.android.support/appcompat-v7/23.0.0/AndroidManifest.xml:20:5-43
MERGED from [com.android.support:support-v4:23.0.0] /Users/chuchu/AndroidStudioProjects/MyApplication2/mobile/build/intermediates/exploded-aar/com.android.support/support-v4/23.0.0/AndroidManifest.xml:20:5-43
MERGED from [com.google.android.gms:play-services:7.8.0] /Users/chuchu/AndroidStudioProjects/MyApplication2/mobile/build/intermediates/exploded-aar/com.google.android.gms/play-services/7.8.0/AndroidManifest.xml:18:5-42
MERGED from [com.google.android.gms:play-services-ads:7.8.0] /Users/chuchu/AndroidStudioProjects/MyApplication2/mobile/build/intermediates/exploded-aar/com.google.android.gms/play-services-ads/7.8.0/AndroidManifest.xml:23:5-42
MERGED from [com.google.android.gms:play-services-base:7.8.0] /Users/chuchu/AndroidStudioProjects/MyApplication2/mobile/build/intermediates/exploded-aar/com.google.android.gms/play-services-base/7.8.0/AndroidManifest.xml:18:5-42
MERGED from [com.android.support:support-v4:23.0.0] /Users/chuchu/AndroidStudioProjects/MyApplication2/mobile/build/intermediates/exploded-aar/com.android.support/support-v4/23.0.0/AndroidManifest.xml:20:5-43
MERGED from [com.google.android.gms:play-services-analytics:7.8.0] /Users/chuchu/AndroidStudioProjects/MyApplication2/mobile/build/intermediates/exploded-aar/com.google.android.gms/play-services-analytics/7.8.0/AndroidManifest.xml:18:5-42
MERGED from [com.google.android.gms:play-services-base:7.8.0] /Users/chuchu/AndroidStudioProjects/MyApplication2/mobile/build/intermediates/exploded-aar/com.google.android.gms/play-services-base/7.8.0/AndroidManifest.xml:18:5-42
MERGED from [com.android.support:support-v4:23.0.0] /Users/chuchu/AndroidStudioProjects/MyApplication2/mobile/build/intermediates/exploded-aar/com.android.support/support-v4/23.0.0/AndroidManifest.xml:20:5-43
MERGED from [com.google.android.gms:play-services-appindexing:7.8.0] /Users/chuchu/AndroidStudioProjects/MyApplication2/mobile/build/intermediates/exploded-aar/com.google.android.gms/play-services-appindexing/7.8.0/AndroidManifest.xml:18:5-42
MERGED from [com.google.android.gms:play-services-base:7.8.0] /Users/chuchu/AndroidStudioProjects/MyApplication2/mobile/build/intermediates/exploded-aar/com.google.android.gms/play-services-base/7.8.0/AndroidManifest.xml:18:5-42
MERGED from [com.android.support:support-v4:23.0.0] /Users/chuchu/AndroidStudioProjects/MyApplication2/mobile/build/intermediates/exploded-aar/com.android.support/support-v4/23.0.0/AndroidManifest.xml:20:5-43
MERGED from [com.google.android.gms:play-services-analytics:7.8.0] /Users/chuchu/AndroidStudioProjects/MyApplication2/mobile/build/intermediates/exploded-aar/com.google.android.gms/play-services-analytics/7.8.0/AndroidManifest.xml:18:5-42
MERGED from [com.google.android.gms:play-services-base:7.8.0] /Users/chuchu/AndroidStudioProjects/MyApplication2/mobile/build/intermediates/exploded-aar/com.google.android.gms/play-services-base/7.8.0/AndroidManifest.xml:18:5-42
MERGED from [com.android.support:support-v4:23.0.0] /Users/chuchu/AndroidStudioProjects/MyApplication2/mobile/build/intermediates/exploded-aar/com.android.support/support-v4/23.0.0/AndroidManifest.xml:20:5-43
MERGED from [com.google.android.gms:play-services-appindexing:7.8.0] /Users/chuchu/AndroidStudioProjects/MyApplication2/mobile/build/intermediates/exploded-aar/com.google.android.gms/play-services-appindexing/7.8.0/AndroidManifest.xml:18:5-42
MERGED from [com.google.android.gms:play-services-base:7.8.0] /Users/chuchu/AndroidStudioProjects/MyApplication2/mobile/build/intermediates/exploded-aar/com.google.android.gms/play-services-base/7.8.0/AndroidManifest.xml:18:5-42
MERGED from [com.android.support:support-v4:23.0.0] /Users/chuchu/AndroidStudioProjects/MyApplication2/mobile/build/intermediates/exploded-aar/com.android.support/support-v4/23.0.0/AndroidManifest.xml:20:5-43
MERGED from [com.google.android.gms:play-services-appinvite:7.8.0] /Users/chuchu/AndroidStudioProjects/MyApplication2/mobile/build/intermediates/exploded-aar/com.google.android.gms/play-services-appinvite/7.8.0/AndroidManifest.xml:18:5-42
MERGED from [com.google.android.gms:play-services-base:7.8.0] /Users/chuchu/AndroidStudioProjects/MyApplication2/mobile/build/intermediates/exploded-aar/com.google.android.gms/play-services-base/7.8.0/AndroidManifest.xml:18:5-42
MERGED from [com.android.support:support-v4:23.0.0] /Users/chuchu/AndroidStudioProjects/MyApplication2/mobile/build/intermediates/exploded-aar/com.android.support/support-v4/23.0.0/AndroidManifest.xml:20:5-43
MERGED from [com.google.android.gms:play-services-appstate:7.8.0] /Users/chuchu/AndroidStudioProjects/MyApplication2/mobile/build/intermediates/exploded-aar/com.google.android.gms/play-services-appstate/7.8.0/AndroidManifest.xml:18:5-42
MERGED from [com.google.android.gms:play-services-base:7.8.0] /Users/chuchu/AndroidStudioProjects/MyApplication2/mobile/build/intermediates/exploded-aar/com.google.android.gms/play-services-base/7.8.0/AndroidManifest.xml:18:5-42
MERGED from [com.android.support:support-v4:23.0.0] /Users/chuchu/AndroidStudioProjects/MyApplication2/mobile/build/intermediates/exploded-aar/com.android.support/support-v4/23.0.0/AndroidManifest.xml:20:5-43
MERGED from [com.google.android.gms:play-services-base:7.8.0] /Users/chuchu/AndroidStudioProjects/MyApplication2/mobile/build/intermediates/exploded-aar/com.google.android.gms/play-services-base/7.8.0/AndroidManifest.xml:18:5-42
MERGED from [com.android.support:support-v4:23.0.0] /Users/chuchu/AndroidStudioProjects/MyApplication2/mobile/build/intermediates/exploded-aar/com.android.support/support-v4/23.0.0/AndroidManifest.xml:20:5-43
MERGED from [com.google.android.gms:play-services-cast:7.8.0] /Users/chuchu/AndroidStudioProjects/MyApplication2/mobile/build/intermediates/exploded-aar/com.google.android.gms/play-services-cast/7.8.0/AndroidManifest.xml:18:5-42
MERGED from [com.google.android.gms:play-services-base:7.8.0] /Users/chuchu/AndroidStudioProjects/MyApplication2/mobile/build/intermediates/exploded-aar/com.google.android.gms/play-services-base/7.8.0/AndroidManifest.xml:18:5-42
MERGED from [com.android.support:support-v4:23.0.0] /Users/chuchu/AndroidStudioProjects/MyApplication2/mobile/build/intermediates/exploded-aar/com.android.support/support-v4/23.0.0/AndroidManifest.xml:20:5-43
MERGED from [com.android.support:mediarouter-v7:22.2.0] /Users/chuchu/AndroidStudioProjects/MyApplication2/mobile/build/intermediates/exploded-aar/com.android.support/mediarouter-v7/22.2.0/AndroidManifest.xml:20:5-43
MERGED from [com.android.support:appcompat-v7:23.0.0] /Users/chuchu/AndroidStudioProjects/MyApplication2/mobile/build/intermediates/exploded-aar/com.android.support/appcompat-v7/23.0.0/AndroidManifest.xml:20:5-43
MERGED from [com.android.support:support-v4:23.0.0] /Users/chuchu/AndroidStudioProjects/MyApplication2/mobile/build/intermediates/exploded-aar/com.android.support/support-v4/23.0.0/AndroidManifest.xml:20:5-43
MERGED from [com.google.android.gms:play-services-drive:7.8.0] /Users/chuchu/AndroidStudioProjects/MyApplication2/mobile/build/intermediates/exploded-aar/com.google.android.gms/play-services-drive/7.8.0/AndroidManifest.xml:18:5-42
MERGED from [com.google.android.gms:play-services-base:7.8.0] /Users/chuchu/AndroidStudioProjects/MyApplication2/mobile/build/intermediates/exploded-aar/com.google.android.gms/play-services-base/7.8.0/AndroidManifest.xml:18:5-42
MERGED from [com.android.support:support-v4:23.0.0] /Users/chuchu/AndroidStudioProjects/MyApplication2/mobile/build/intermediates/exploded-aar/com.android.support/support-v4/23.0.0/AndroidManifest.xml:20:5-43
MERGED from [com.google.android.gms:play-services-fitness:7.8.0] /Users/chuchu/AndroidStudioProjects/MyApplication2/mobile/build/intermediates/exploded-aar/com.google.android.gms/play-services-fitness/7.8.0/AndroidManifest.xml:18:5-42
MERGED from [com.google.android.gms:play-services-base:7.8.0] /Users/chuchu/AndroidStudioProjects/MyApplication2/mobile/build/intermediates/exploded-aar/com.google.android.gms/play-services-base/7.8.0/AndroidManifest.xml:18:5-42
MERGED from [com.android.support:support-v4:23.0.0] /Users/chuchu/AndroidStudioProjects/MyApplication2/mobile/build/intermediates/exploded-aar/com.android.support/support-v4/23.0.0/AndroidManifest.xml:20:5-43
MERGED from [com.google.android.gms:play-services-location:7.8.0] /Users/chuchu/AndroidStudioProjects/MyApplication2/mobile/build/intermediates/exploded-aar/com.google.android.gms/play-services-location/7.8.0/AndroidManifest.xml:18:5-42
MERGED from [com.google.android.gms:play-services-base:7.8.0] /Users/chuchu/AndroidStudioProjects/MyApplication2/mobile/build/intermediates/exploded-aar/com.google.android.gms/play-services-base/7.8.0/AndroidManifest.xml:18:5-42
MERGED from [com.android.support:support-v4:23.0.0] /Users/chuchu/AndroidStudioProjects/MyApplication2/mobile/build/intermediates/exploded-aar/com.android.support/support-v4/23.0.0/AndroidManifest.xml:20:5-43
MERGED from [com.google.android.gms:play-services-maps:7.8.0] /Users/chuchu/AndroidStudioProjects/MyApplication2/mobile/build/intermediates/exploded-aar/com.google.android.gms/play-services-maps/7.8.0/AndroidManifest.xml:27:5-42
MERGED from [com.google.android.gms:play-services-base:7.8.0] /Users/chuchu/AndroidStudioProjects/MyApplication2/mobile/build/intermediates/exploded-aar/com.google.android.gms/play-services-base/7.8.0/AndroidManifest.xml:18:5-42
MERGED from [com.android.support:support-v4:23.0.0] /Users/chuchu/AndroidStudioProjects/MyApplication2/mobile/build/intermediates/exploded-aar/com.android.support/support-v4/23.0.0/AndroidManifest.xml:20:5-43
MERGED from [com.google.android.gms:play-services-games:7.8.0] /Users/chuchu/AndroidStudioProjects/MyApplication2/mobile/build/intermediates/exploded-aar/com.google.android.gms/play-services-games/7.8.0/AndroidManifest.xml:18:5-42
MERGED from [com.google.android.gms:play-services-base:7.8.0] /Users/chuchu/AndroidStudioProjects/MyApplication2/mobile/build/intermediates/exploded-aar/com.google.android.gms/play-services-base/7.8.0/AndroidManifest.xml:18:5-42
MERGED from [com.android.support:support-v4:23.0.0] /Users/chuchu/AndroidStudioProjects/MyApplication2/mobile/build/intermediates/exploded-aar/com.android.support/support-v4/23.0.0/AndroidManifest.xml:20:5-43
MERGED from [com.google.android.gms:play-services-drive:7.8.0] /Users/chuchu/AndroidStudioProjects/MyApplication2/mobile/build/intermediates/exploded-aar/com.google.android.gms/play-services-drive/7.8.0/AndroidManifest.xml:18:5-42
MERGED from [com.google.android.gms:play-services-base:7.8.0] /Users/chuchu/AndroidStudioProjects/MyApplication2/mobile/build/intermediates/exploded-aar/com.google.android.gms/play-services-base/7.8.0/AndroidManifest.xml:18:5-42
MERGED from [com.android.support:support-v4:23.0.0] /Users/chuchu/AndroidStudioProjects/MyApplication2/mobile/build/intermediates/exploded-aar/com.android.support/support-v4/23.0.0/AndroidManifest.xml:20:5-43
MERGED from [com.google.android.gms:play-services-gcm:7.8.0] /Users/chuchu/AndroidStudioProjects/MyApplication2/mobile/build/intermediates/exploded-aar/com.google.android.gms/play-services-gcm/7.8.0/AndroidManifest.xml:18:5-42
MERGED from [com.google.android.gms:play-services-base:7.8.0] /Users/chuchu/AndroidStudioProjects/MyApplication2/mobile/build/intermediates/exploded-aar/com.google.android.gms/play-services-base/7.8.0/AndroidManifest.xml:18:5-42
MERGED from [com.android.support:support-v4:23.0.0] /Users/chuchu/AndroidStudioProjects/MyApplication2/mobile/build/intermediates/exploded-aar/com.android.support/support-v4/23.0.0/AndroidManifest.xml:20:5-43
MERGED from [com.google.android.gms:play-services-identity:7.8.0] /Users/chuchu/AndroidStudioProjects/MyApplication2/mobile/build/intermediates/exploded-aar/com.google.android.gms/play-services-identity/7.8.0/AndroidManifest.xml:18:5-42
MERGED from [com.google.android.gms:play-services-base:7.8.0] /Users/chuchu/AndroidStudioProjects/MyApplication2/mobile/build/intermediates/exploded-aar/com.google.android.gms/play-services-base/7.8.0/AndroidManifest.xml:18:5-42
MERGED from [com.android.support:support-v4:23.0.0] /Users/chuchu/AndroidStudioProjects/MyApplication2/mobile/build/intermediates/exploded-aar/com.android.support/support-v4/23.0.0/AndroidManifest.xml:20:5-43
MERGED from [com.google.android.gms:play-services-location:7.8.0] /Users/chuchu/AndroidStudioProjects/MyApplication2/mobile/build/intermediates/exploded-aar/com.google.android.gms/play-services-location/7.8.0/AndroidManifest.xml:18:5-42
MERGED from [com.google.android.gms:play-services-base:7.8.0] /Users/chuchu/AndroidStudioProjects/MyApplication2/mobile/build/intermediates/exploded-aar/com.google.android.gms/play-services-base/7.8.0/AndroidManifest.xml:18:5-42
MERGED from [com.android.support:support-v4:23.0.0] /Users/chuchu/AndroidStudioProjects/MyApplication2/mobile/build/intermediates/exploded-aar/com.android.support/support-v4/23.0.0/AndroidManifest.xml:20:5-43
MERGED from [com.google.android.gms:play-services-maps:7.8.0] /Users/chuchu/AndroidStudioProjects/MyApplication2/mobile/build/intermediates/exploded-aar/com.google.android.gms/play-services-maps/7.8.0/AndroidManifest.xml:27:5-42
MERGED from [com.google.android.gms:play-services-base:7.8.0] /Users/chuchu/AndroidStudioProjects/MyApplication2/mobile/build/intermediates/exploded-aar/com.google.android.gms/play-services-base/7.8.0/AndroidManifest.xml:18:5-42
MERGED from [com.android.support:support-v4:23.0.0] /Users/chuchu/AndroidStudioProjects/MyApplication2/mobile/build/intermediates/exploded-aar/com.android.support/support-v4/23.0.0/AndroidManifest.xml:20:5-43
MERGED from [com.google.android.gms:play-services-maps:7.8.0] /Users/chuchu/AndroidStudioProjects/MyApplication2/mobile/build/intermediates/exploded-aar/com.google.android.gms/play-services-maps/7.8.0/AndroidManifest.xml:27:5-42
MERGED from [com.google.android.gms:play-services-base:7.8.0] /Users/chuchu/AndroidStudioProjects/MyApplication2/mobile/build/intermediates/exploded-aar/com.google.android.gms/play-services-base/7.8.0/AndroidManifest.xml:18:5-42
MERGED from [com.android.support:support-v4:23.0.0] /Users/chuchu/AndroidStudioProjects/MyApplication2/mobile/build/intermediates/exploded-aar/com.android.support/support-v4/23.0.0/AndroidManifest.xml:20:5-43
MERGED from [com.google.android.gms:play-services-nearby:7.8.0] /Users/chuchu/AndroidStudioProjects/MyApplication2/mobile/build/intermediates/exploded-aar/com.google.android.gms/play-services-nearby/7.8.0/AndroidManifest.xml:18:5-42
MERGED from [com.google.android.gms:play-services-base:7.8.0] /Users/chuchu/AndroidStudioProjects/MyApplication2/mobile/build/intermediates/exploded-aar/com.google.android.gms/play-services-base/7.8.0/AndroidManifest.xml:18:5-42
MERGED from [com.android.support:support-v4:23.0.0] /Users/chuchu/AndroidStudioProjects/MyApplication2/mobile/build/intermediates/exploded-aar/com.android.support/support-v4/23.0.0/AndroidManifest.xml:20:5-43
MERGED from [com.google.android.gms:play-services-panorama:7.8.0] /Users/chuchu/AndroidStudioProjects/MyApplication2/mobile/build/intermediates/exploded-aar/com.google.android.gms/play-services-panorama/7.8.0/AndroidManifest.xml:18:5-42
MERGED from [com.google.android.gms:play-services-base:7.8.0] /Users/chuchu/AndroidStudioProjects/MyApplication2/mobile/build/intermediates/exploded-aar/com.google.android.gms/play-services-base/7.8.0/AndroidManifest.xml:18:5-42
MERGED from [com.android.support:support-v4:23.0.0] /Users/chuchu/AndroidStudioProjects/MyApplication2/mobile/build/intermediates/exploded-aar/com.android.support/support-v4/23.0.0/AndroidManifest.xml:20:5-43
MERGED from [com.google.android.gms:play-services-plus:7.8.0] /Users/chuchu/AndroidStudioProjects/MyApplication2/mobile/build/intermediates/exploded-aar/com.google.android.gms/play-services-plus/7.8.0/AndroidManifest.xml:18:5-42
MERGED from [com.google.android.gms:play-services-base:7.8.0] /Users/chuchu/AndroidStudioProjects/MyApplication2/mobile/build/intermediates/exploded-aar/com.google.android.gms/play-services-base/7.8.0/AndroidManifest.xml:18:5-42
MERGED from [com.android.support:support-v4:23.0.0] /Users/chuchu/AndroidStudioProjects/MyApplication2/mobile/build/intermediates/exploded-aar/com.android.support/support-v4/23.0.0/AndroidManifest.xml:20:5-43
MERGED from [com.google.android.gms:play-services-safetynet:7.8.0] /Users/chuchu/AndroidStudioProjects/MyApplication2/mobile/build/intermediates/exploded-aar/com.google.android.gms/play-services-safetynet/7.8.0/AndroidManifest.xml:18:5-42
MERGED from [com.google.android.gms:play-services-base:7.8.0] /Users/chuchu/AndroidStudioProjects/MyApplication2/mobile/build/intermediates/exploded-aar/com.google.android.gms/play-services-base/7.8.0/AndroidManifest.xml:18:5-42
MERGED from [com.android.support:support-v4:23.0.0] /Users/chuchu/AndroidStudioProjects/MyApplication2/mobile/build/intermediates/exploded-aar/com.android.support/support-v4/23.0.0/AndroidManifest.xml:20:5-43
MERGED from [com.google.android.gms:play-services-vision:7.8.0] /Users/chuchu/AndroidStudioProjects/MyApplication2/mobile/build/intermediates/exploded-aar/com.google.android.gms/play-services-vision/7.8.0/AndroidManifest.xml:4:5-42
MERGED from [com.google.android.gms:play-services-base:7.8.0] /Users/chuchu/AndroidStudioProjects/MyApplication2/mobile/build/intermediates/exploded-aar/com.google.android.gms/play-services-base/7.8.0/AndroidManifest.xml:18:5-42
MERGED from [com.android.support:support-v4:23.0.0] /Users/chuchu/AndroidStudioProjects/MyApplication2/mobile/build/intermediates/exploded-aar/com.android.support/support-v4/23.0.0/AndroidManifest.xml:20:5-43
MERGED from [com.google.android.gms:play-services-wallet:7.8.0] /Users/chuchu/AndroidStudioProjects/MyApplication2/mobile/build/intermediates/exploded-aar/com.google.android.gms/play-services-wallet/7.8.0/AndroidManifest.xml:19:5-42
MERGED from [com.google.android.gms:play-services-base:7.8.0] /Users/chuchu/AndroidStudioProjects/MyApplication2/mobile/build/intermediates/exploded-aar/com.google.android.gms/play-services-base/7.8.0/AndroidManifest.xml:18:5-42
MERGED from [com.android.support:support-v4:23.0.0] /Users/chuchu/AndroidStudioProjects/MyApplication2/mobile/build/intermediates/exploded-aar/com.android.support/support-v4/23.0.0/AndroidManifest.xml:20:5-43
MERGED from [com.google.android.gms:play-services-identity:7.8.0] /Users/chuchu/AndroidStudioProjects/MyApplication2/mobile/build/intermediates/exploded-aar/com.google.android.gms/play-services-identity/7.8.0/AndroidManifest.xml:18:5-42
MERGED from [com.google.android.gms:play-services-base:7.8.0] /Users/chuchu/AndroidStudioProjects/MyApplication2/mobile/build/intermediates/exploded-aar/com.google.android.gms/play-services-base/7.8.0/AndroidManifest.xml:18:5-42
MERGED from [com.android.support:support-v4:23.0.0] /Users/chuchu/AndroidStudioProjects/MyApplication2/mobile/build/intermediates/exploded-aar/com.android.support/support-v4/23.0.0/AndroidManifest.xml:20:5-43
MERGED from [com.google.android.gms:play-services-maps:7.8.0] /Users/chuchu/AndroidStudioProjects/MyApplication2/mobile/build/intermediates/exploded-aar/com.google.android.gms/play-services-maps/7.8.0/AndroidManifest.xml:27:5-42
MERGED from [com.google.android.gms:play-services-base:7.8.0] /Users/chuchu/AndroidStudioProjects/MyApplication2/mobile/build/intermediates/exploded-aar/com.google.android.gms/play-services-base/7.8.0/AndroidManifest.xml:18:5-42
MERGED from [com.android.support:support-v4:23.0.0] /Users/chuchu/AndroidStudioProjects/MyApplication2/mobile/build/intermediates/exploded-aar/com.android.support/support-v4/23.0.0/AndroidManifest.xml:20:5-43
MERGED from [com.google.android.gms:play-services-wearable:7.8.0] /Users/chuchu/AndroidStudioProjects/MyApplication2/mobile/build/intermediates/exploded-aar/com.google.android.gms/play-services-wearable/7.8.0/AndroidManifest.xml:18:5-42
MERGED from [com.google.android.gms:play-services-base:7.8.0] /Users/chuchu/AndroidStudioProjects/MyApplication2/mobile/build/intermediates/exploded-aar/com.google.android.gms/play-services-base/7.8.0/AndroidManifest.xml:18:5-42
MERGED from [com.android.support:support-v4:23.0.0] /Users/chuchu/AndroidStudioProjects/MyApplication2/mobile/build/intermediates/exploded-aar/com.android.support/support-v4/23.0.0/AndroidManifest.xml:20:5-43
	android:targetSdkVersion
		INJECTED from /Users/chuchu/AndroidStudioProjects/MyApplication2/mobile/src/main/AndroidManifest.xml
		INJECTED from /Users/chuchu/AndroidStudioProjects/MyApplication2/mobile/src/main/AndroidManifest.xml
	android:minSdkVersion
		INJECTED from /Users/chuchu/AndroidStudioProjects/MyApplication2/mobile/src/main/AndroidManifest.xml
		INJECTED from /Users/chuchu/AndroidStudioProjects/MyApplication2/mobile/src/main/AndroidManifest.xml
uses-permission#android.permission.INTERNET
ADDED from [com.google.android.gms:play-services-ads:7.8.0] /Users/chuchu/AndroidStudioProjects/MyApplication2/mobile/build/intermediates/exploded-aar/com.google.android.gms/play-services-ads/7.8.0/AndroidManifest.xml:20:5-66
MERGED from [com.google.android.gms:play-services-analytics:7.8.0] /Users/chuchu/AndroidStudioProjects/MyApplication2/mobile/build/intermediates/exploded-aar/com.google.android.gms/play-services-analytics/7.8.0/AndroidManifest.xml:21:5-67
MERGED from [com.google.android.gms:play-services-analytics:7.8.0] /Users/chuchu/AndroidStudioProjects/MyApplication2/mobile/build/intermediates/exploded-aar/com.google.android.gms/play-services-analytics/7.8.0/AndroidManifest.xml:21:5-67
MERGED from [com.google.android.gms:play-services-appinvite:7.8.0] /Users/chuchu/AndroidStudioProjects/MyApplication2/mobile/build/intermediates/exploded-aar/com.google.android.gms/play-services-appinvite/7.8.0/AndroidManifest.xml:19:5-67
MERGED from [com.google.android.gms:play-services-maps:7.8.0] /Users/chuchu/AndroidStudioProjects/MyApplication2/mobile/build/intermediates/exploded-aar/com.google.android.gms/play-services-maps/7.8.0/AndroidManifest.xml:21:5-66
MERGED from [com.google.android.gms:play-services-gcm:7.8.0] /Users/chuchu/AndroidStudioProjects/MyApplication2/mobile/build/intermediates/exploded-aar/com.google.android.gms/play-services-gcm/7.8.0/AndroidManifest.xml:22:5-67
MERGED from [com.google.android.gms:play-services-maps:7.8.0] /Users/chuchu/AndroidStudioProjects/MyApplication2/mobile/build/intermediates/exploded-aar/com.google.android.gms/play-services-maps/7.8.0/AndroidManifest.xml:21:5-66
MERGED from [com.google.android.gms:play-services-maps:7.8.0] /Users/chuchu/AndroidStudioProjects/MyApplication2/mobile/build/intermediates/exploded-aar/com.google.android.gms/play-services-maps/7.8.0/AndroidManifest.xml:21:5-66
MERGED from [com.google.android.gms:play-services-wallet:7.8.0] /Users/chuchu/AndroidStudioProjects/MyApplication2/mobile/build/intermediates/exploded-aar/com.google.android.gms/play-services-wallet/7.8.0/AndroidManifest.xml:20:5-66
MERGED from [com.google.android.gms:play-services-maps:7.8.0] /Users/chuchu/AndroidStudioProjects/MyApplication2/mobile/build/intermediates/exploded-aar/com.google.android.gms/play-services-maps/7.8.0/AndroidManifest.xml:21:5-66
	android:name
		ADDED from [com.google.android.gms:play-services-ads:7.8.0] /Users/chuchu/AndroidStudioProjects/MyApplication2/mobile/build/intermediates/exploded-aar/com.google.android.gms/play-services-ads/7.8.0/AndroidManifest.xml:20:22-64
uses-permission#android.permission.ACCESS_NETWORK_STATE
ADDED from [com.google.android.gms:play-services-ads:7.8.0] /Users/chuchu/AndroidStudioProjects/MyApplication2/mobile/build/intermediates/exploded-aar/com.google.android.gms/play-services-ads/7.8.0/AndroidManifest.xml:21:5-78
MERGED from [com.google.android.gms:play-services-analytics:7.8.0] /Users/chuchu/AndroidStudioProjects/MyApplication2/mobile/build/intermediates/exploded-aar/com.google.android.gms/play-services-analytics/7.8.0/AndroidManifest.xml:22:5-79
MERGED from [com.google.android.gms:play-services-analytics:7.8.0] /Users/chuchu/AndroidStudioProjects/MyApplication2/mobile/build/intermediates/exploded-aar/com.google.android.gms/play-services-analytics/7.8.0/AndroidManifest.xml:22:5-79
MERGED from [com.google.android.gms:play-services-maps:7.8.0] /Users/chuchu/AndroidStudioProjects/MyApplication2/mobile/build/intermediates/exploded-aar/com.google.android.gms/play-services-maps/7.8.0/AndroidManifest.xml:20:5-78
MERGED from [com.google.android.gms:play-services-maps:7.8.0] /Users/chuchu/AndroidStudioProjects/MyApplication2/mobile/build/intermediates/exploded-aar/com.google.android.gms/play-services-maps/7.8.0/AndroidManifest.xml:20:5-78
MERGED from [com.google.android.gms:play-services-maps:7.8.0] /Users/chuchu/AndroidStudioProjects/MyApplication2/mobile/build/intermediates/exploded-aar/com.google.android.gms/play-services-maps/7.8.0/AndroidManifest.xml:20:5-78
MERGED from [com.google.android.gms:play-services-nearby:7.8.0] /Users/chuchu/AndroidStudioProjects/MyApplication2/mobile/build/intermediates/exploded-aar/com.google.android.gms/play-services-nearby/7.8.0/AndroidManifest.xml:19:5-79
MERGED from [com.google.android.gms:play-services-maps:7.8.0] /Users/chuchu/AndroidStudioProjects/MyApplication2/mobile/build/intermediates/exploded-aar/com.google.android.gms/play-services-maps/7.8.0/AndroidManifest.xml:20:5-78
	android:name
		ADDED from [com.google.android.gms:play-services-ads:7.8.0] /Users/chuchu/AndroidStudioProjects/MyApplication2/mobile/build/intermediates/exploded-aar/com.google.android.gms/play-services-ads/7.8.0/AndroidManifest.xml:21:22-76
activity#com.google.android.gms.ads.AdActivity
ADDED from [com.google.android.gms:play-services-ads:7.8.0] /Users/chuchu/AndroidStudioProjects/MyApplication2/mobile/build/intermediates/exploded-aar/com.google.android.gms/play-services-ads/7.8.0/AndroidManifest.xml:26:9-29:64
	android:configChanges
		ADDED from [com.google.android.gms:play-services-ads:7.8.0] /Users/chuchu/AndroidStudioProjects/MyApplication2/mobile/build/intermediates/exploded-aar/com.google.android.gms/play-services-ads/7.8.0/AndroidManifest.xml:28:13-122
	android:theme
		ADDED from [com.google.android.gms:play-services-ads:7.8.0] /Users/chuchu/AndroidStudioProjects/MyApplication2/mobile/build/intermediates/exploded-aar/com.google.android.gms/play-services-ads/7.8.0/AndroidManifest.xml:29:13-61
	android:name
		ADDED from [com.google.android.gms:play-services-ads:7.8.0] /Users/chuchu/AndroidStudioProjects/MyApplication2/mobile/build/intermediates/exploded-aar/com.google.android.gms/play-services-ads/7.8.0/AndroidManifest.xml:27:13-65
activity#com.google.android.gms.ads.purchase.InAppPurchaseActivity
ADDED from [com.google.android.gms:play-services-ads:7.8.0] /Users/chuchu/AndroidStudioProjects/MyApplication2/mobile/build/intermediates/exploded-aar/com.google.android.gms/play-services-ads/7.8.0/AndroidManifest.xml:30:9-31:52
	android:theme
		ADDED from [com.google.android.gms:play-services-ads:7.8.0] /Users/chuchu/AndroidStudioProjects/MyApplication2/mobile/build/intermediates/exploded-aar/com.google.android.gms/play-services-ads/7.8.0/AndroidManifest.xml:31:13-50
	android:name
		ADDED from [com.google.android.gms:play-services-ads:7.8.0] /Users/chuchu/AndroidStudioProjects/MyApplication2/mobile/build/intermediates/exploded-aar/com.google.android.gms/play-services-ads/7.8.0/AndroidManifest.xml:30:19-91
meta-data#com.google.android.gms.version
ADDED from [com.google.android.gms:play-services-base:7.8.0] /Users/chuchu/AndroidStudioProjects/MyApplication2/mobile/build/intermediates/exploded-aar/com.google.android.gms/play-services-base/7.8.0/AndroidManifest.xml:21:9-23:69
MERGED from [com.google.android.gms:play-services-base:7.8.0] /Users/chuchu/AndroidStudioProjects/MyApplication2/mobile/build/intermediates/exploded-aar/com.google.android.gms/play-services-base/7.8.0/AndroidManifest.xml:21:9-23:69
MERGED from [com.google.android.gms:play-services-base:7.8.0] /Users/chuchu/AndroidStudioProjects/MyApplication2/mobile/build/intermediates/exploded-aar/com.google.android.gms/play-services-base/7.8.0/AndroidManifest.xml:21:9-23:69
MERGED from [com.google.android.gms:play-services-base:7.8.0] /Users/chuchu/AndroidStudioProjects/MyApplication2/mobile/build/intermediates/exploded-aar/com.google.android.gms/play-services-base/7.8.0/AndroidManifest.xml:21:9-23:69
MERGED from [com.google.android.gms:play-services-base:7.8.0] /Users/chuchu/AndroidStudioProjects/MyApplication2/mobile/build/intermediates/exploded-aar/com.google.android.gms/play-services-base/7.8.0/AndroidManifest.xml:21:9-23:69
MERGED from [com.google.android.gms:play-services-base:7.8.0] /Users/chuchu/AndroidStudioProjects/MyApplication2/mobile/build/intermediates/exploded-aar/com.google.android.gms/play-services-base/7.8.0/AndroidManifest.xml:21:9-23:69
MERGED from [com.google.android.gms:play-services-base:7.8.0] /Users/chuchu/AndroidStudioProjects/MyApplication2/mobile/build/intermediates/exploded-aar/com.google.android.gms/play-services-base/7.8.0/AndroidManifest.xml:21:9-23:69
MERGED from [com.google.android.gms:play-services-base:7.8.0] /Users/chuchu/AndroidStudioProjects/MyApplication2/mobile/build/intermediates/exploded-aar/com.google.android.gms/play-services-base/7.8.0/AndroidManifest.xml:21:9-23:69
MERGED from [com.google.android.gms:play-services-base:7.8.0] /Users/chuchu/AndroidStudioProjects/MyApplication2/mobile/build/intermediates/exploded-aar/com.google.android.gms/play-services-base/7.8.0/AndroidManifest.xml:21:9-23:69
MERGED from [com.google.android.gms:play-services-base:7.8.0] /Users/chuchu/AndroidStudioProjects/MyApplication2/mobile/build/intermediates/exploded-aar/com.google.android.gms/play-services-base/7.8.0/AndroidManifest.xml:21:9-23:69
MERGED from [com.google.android.gms:play-services-base:7.8.0] /Users/chuchu/AndroidStudioProjects/MyApplication2/mobile/build/intermediates/exploded-aar/com.google.android.gms/play-services-base/7.8.0/AndroidManifest.xml:21:9-23:69
MERGED from [com.google.android.gms:play-services-base:7.8.0] /Users/chuchu/AndroidStudioProjects/MyApplication2/mobile/build/intermediates/exploded-aar/com.google.android.gms/play-services-base/7.8.0/AndroidManifest.xml:21:9-23:69
MERGED from [com.google.android.gms:play-services-base:7.8.0] /Users/chuchu/AndroidStudioProjects/MyApplication2/mobile/build/intermediates/exploded-aar/com.google.android.gms/play-services-base/7.8.0/AndroidManifest.xml:21:9-23:69
MERGED from [com.google.android.gms:play-services-base:7.8.0] /Users/chuchu/AndroidStudioProjects/MyApplication2/mobile/build/intermediates/exploded-aar/com.google.android.gms/play-services-base/7.8.0/AndroidManifest.xml:21:9-23:69
MERGED from [com.google.android.gms:play-services-base:7.8.0] /Users/chuchu/AndroidStudioProjects/MyApplication2/mobile/build/intermediates/exploded-aar/com.google.android.gms/play-services-base/7.8.0/AndroidManifest.xml:21:9-23:69
MERGED from [com.google.android.gms:play-services-base:7.8.0] /Users/chuchu/AndroidStudioProjects/MyApplication2/mobile/build/intermediates/exploded-aar/com.google.android.gms/play-services-base/7.8.0/AndroidManifest.xml:21:9-23:69
MERGED from [com.google.android.gms:play-services-base:7.8.0] /Users/chuchu/AndroidStudioProjects/MyApplication2/mobile/build/intermediates/exploded-aar/com.google.android.gms/play-services-base/7.8.0/AndroidManifest.xml:21:9-23:69
MERGED from [com.google.android.gms:play-services-base:7.8.0] /Users/chuchu/AndroidStudioProjects/MyApplication2/mobile/build/intermediates/exploded-aar/com.google.android.gms/play-services-base/7.8.0/AndroidManifest.xml:21:9-23:69
MERGED from [com.google.android.gms:play-services-base:7.8.0] /Users/chuchu/AndroidStudioProjects/MyApplication2/mobile/build/intermediates/exploded-aar/com.google.android.gms/play-services-base/7.8.0/AndroidManifest.xml:21:9-23:69
MERGED from [com.google.android.gms:play-services-base:7.8.0] /Users/chuchu/AndroidStudioProjects/MyApplication2/mobile/build/intermediates/exploded-aar/com.google.android.gms/play-services-base/7.8.0/AndroidManifest.xml:21:9-23:69
MERGED from [com.google.android.gms:play-services-base:7.8.0] /Users/chuchu/AndroidStudioProjects/MyApplication2/mobile/build/intermediates/exploded-aar/com.google.android.gms/play-services-base/7.8.0/AndroidManifest.xml:21:9-23:69
MERGED from [com.google.android.gms:play-services-base:7.8.0] /Users/chuchu/AndroidStudioProjects/MyApplication2/mobile/build/intermediates/exploded-aar/com.google.android.gms/play-services-base/7.8.0/AndroidManifest.xml:21:9-23:69
MERGED from [com.google.android.gms:play-services-base:7.8.0] /Users/chuchu/AndroidStudioProjects/MyApplication2/mobile/build/intermediates/exploded-aar/com.google.android.gms/play-services-base/7.8.0/AndroidManifest.xml:21:9-23:69
MERGED from [com.google.android.gms:play-services-base:7.8.0] /Users/chuchu/AndroidStudioProjects/MyApplication2/mobile/build/intermediates/exploded-aar/com.google.android.gms/play-services-base/7.8.0/AndroidManifest.xml:21:9-23:69
MERGED from [com.google.android.gms:play-services-base:7.8.0] /Users/chuchu/AndroidStudioProjects/MyApplication2/mobile/build/intermediates/exploded-aar/com.google.android.gms/play-services-base/7.8.0/AndroidManifest.xml:21:9-23:69
MERGED from [com.google.android.gms:play-services-base:7.8.0] /Users/chuchu/AndroidStudioProjects/MyApplication2/mobile/build/intermediates/exploded-aar/com.google.android.gms/play-services-base/7.8.0/AndroidManifest.xml:21:9-23:69
MERGED from [com.google.android.gms:play-services-base:7.8.0] /Users/chuchu/AndroidStudioProjects/MyApplication2/mobile/build/intermediates/exploded-aar/com.google.android.gms/play-services-base/7.8.0/AndroidManifest.xml:21:9-23:69
MERGED from [com.google.android.gms:play-services-base:7.8.0] /Users/chuchu/AndroidStudioProjects/MyApplication2/mobile/build/intermediates/exploded-aar/com.google.android.gms/play-services-base/7.8.0/AndroidManifest.xml:21:9-23:69
MERGED from [com.google.android.gms:play-services-base:7.8.0] /Users/chuchu/AndroidStudioProjects/MyApplication2/mobile/build/intermediates/exploded-aar/com.google.android.gms/play-services-base/7.8.0/AndroidManifest.xml:21:9-23:69
	android:name
		ADDED from [com.google.android.gms:play-services-base:7.8.0] /Users/chuchu/AndroidStudioProjects/MyApplication2/mobile/build/intermediates/exploded-aar/com.google.android.gms/play-services-base/7.8.0/AndroidManifest.xml:22:13-58
	android:value
		ADDED from [com.google.android.gms:play-services-base:7.8.0] /Users/chuchu/AndroidStudioProjects/MyApplication2/mobile/build/intermediates/exploded-aar/com.google.android.gms/play-services-base/7.8.0/AndroidManifest.xml:23:13-66
uses-permission#android.permission.WRITE_EXTERNAL_STORAGE
ADDED from [com.google.android.gms:play-services-maps:7.8.0] /Users/chuchu/AndroidStudioProjects/MyApplication2/mobile/build/intermediates/exploded-aar/com.google.android.gms/play-services-maps/7.8.0/AndroidManifest.xml:22:5-80
MERGED from [com.google.android.gms:play-services-maps:7.8.0] /Users/chuchu/AndroidStudioProjects/MyApplication2/mobile/build/intermediates/exploded-aar/com.google.android.gms/play-services-maps/7.8.0/AndroidManifest.xml:22:5-80
MERGED from [com.google.android.gms:play-services-maps:7.8.0] /Users/chuchu/AndroidStudioProjects/MyApplication2/mobile/build/intermediates/exploded-aar/com.google.android.gms/play-services-maps/7.8.0/AndroidManifest.xml:22:5-80
MERGED from [com.google.android.gms:play-services-maps:7.8.0] /Users/chuchu/AndroidStudioProjects/MyApplication2/mobile/build/intermediates/exploded-aar/com.google.android.gms/play-services-maps/7.8.0/AndroidManifest.xml:22:5-80
	android:name
		ADDED from [com.google.android.gms:play-services-maps:7.8.0] /Users/chuchu/AndroidStudioProjects/MyApplication2/mobile/build/intermediates/exploded-aar/com.google.android.gms/play-services-maps/7.8.0/AndroidManifest.xml:22:22-78
uses-feature#0x00020000
ADDED from [com.google.android.gms:play-services-maps:7.8.0] /Users/chuchu/AndroidStudioProjects/MyApplication2/mobile/build/intermediates/exploded-aar/com.google.android.gms/play-services-maps/7.8.0/AndroidManifest.xml:23:5-25:33
MERGED from [com.google.android.gms:play-services-maps:7.8.0] /Users/chuchu/AndroidStudioProjects/MyApplication2/mobile/build/intermediates/exploded-aar/com.google.android.gms/play-services-maps/7.8.0/AndroidManifest.xml:23:5-25:33
MERGED from [com.google.android.gms:play-services-maps:7.8.0] /Users/chuchu/AndroidStudioProjects/MyApplication2/mobile/build/intermediates/exploded-aar/com.google.android.gms/play-services-maps/7.8.0/AndroidManifest.xml:23:5-25:33
MERGED from [com.google.android.gms:play-services-maps:7.8.0] /Users/chuchu/AndroidStudioProjects/MyApplication2/mobile/build/intermediates/exploded-aar/com.google.android.gms/play-services-maps/7.8.0/AndroidManifest.xml:23:5-25:33
	android:required
		ADDED from [com.google.android.gms:play-services-maps:7.8.0] /Users/chuchu/AndroidStudioProjects/MyApplication2/mobile/build/intermediates/exploded-aar/com.google.android.gms/play-services-maps/7.8.0/AndroidManifest.xml:25:8-31
	android:glEsVersion
		ADDED from [com.google.android.gms:play-services-maps:7.8.0] /Users/chuchu/AndroidStudioProjects/MyApplication2/mobile/build/intermediates/exploded-aar/com.google.android.gms/play-services-maps/7.8.0/AndroidManifest.xml:24:8-40
android:uses-permission#android.permission.READ_EXTERNAL_STORAGE
IMPLIED from /Users/chuchu/AndroidStudioProjects/MyApplication2/mobile/src/main/AndroidManifest.xml:2:1-21:12 reason: com.google.android.gms.maps requested WRITE_EXTERNAL_STORAGE
uses-permission#com.google.android.c2dm.permission.RECEIVE
ADDED from [com.google.android.gms:play-services-gcm:7.8.0] /Users/chuchu/AndroidStudioProjects/MyApplication2/mobile/build/intermediates/exploded-aar/com.google.android.gms/play-services-gcm/7.8.0/AndroidManifest.xml:21:5-82
	android:name
		ADDED from [com.google.android.gms:play-services-gcm:7.8.0] /Users/chuchu/AndroidStudioProjects/MyApplication2/mobile/build/intermediates/exploded-aar/com.google.android.gms/play-services-gcm/7.8.0/AndroidManifest.xml:21:22-79
uses-permission#android.permission.GET_ACCOUNTS
ADDED from [com.google.android.gms:play-services-wallet:7.8.0] /Users/chuchu/AndroidStudioProjects/MyApplication2/mobile/build/intermediates/exploded-aar/com.google.android.gms/play-services-wallet/7.8.0/AndroidManifest.xml:21:5-70
	android:name
		ADDED from [com.google.android.gms:play-services-wallet:7.8.0] /Users/chuchu/AndroidStudioProjects/MyApplication2/mobile/build/intermediates/exploded-aar/com.google.android.gms/play-services-wallet/7.8.0/AndroidManifest.xml:21:22-68
uses-permission#android.permission.USE_CREDENTIALS
ADDED from [com.google.android.gms:play-services-wallet:7.8.0] /Users/chuchu/AndroidStudioProjects/MyApplication2/mobile/build/intermediates/exploded-aar/com.google.android.gms/play-services-wallet/7.8.0/AndroidManifest.xml:22:5-73
	android:name
		ADDED from [com.google.android.gms:play-services-wallet:7.8.0] /Users/chuchu/AndroidStudioProjects/MyApplication2/mobile/build/intermediates/exploded-aar/com.google.android.gms/play-services-wallet/7.8.0/AndroidManifest.xml:22:22-71
